\relax 
\providecommand\hyper@newdestlabel[2]{}
\catcode `"\active 
\catcode `<\active 
\catcode `>\active 
\@nameuse{es@quoting}
\bibstyle{abbrvnat}
\providecommand\HyperFirstAtBeginDocument{\AtBeginDocument}
\HyperFirstAtBeginDocument{\ifx\hyper@anchor\@undefined
\global\let\oldcontentsline\contentsline
\gdef\contentsline#1#2#3#4{\oldcontentsline{#1}{#2}{#3}}
\global\let\oldnewlabel\newlabel
\gdef\newlabel#1#2{\newlabelxx{#1}#2}
\gdef\newlabelxx#1#2#3#4#5#6{\oldnewlabel{#1}{{#2}{#3}}}
\AtEndDocument{\ifx\hyper@anchor\@undefined
\let\contentsline\oldcontentsline
\let\newlabel\oldnewlabel
\fi}
\fi}
\global\let\hyper@last\relax 
\gdef\HyperFirstAtBeginDocument#1{#1}
\providecommand\HyField@AuxAddToFields[1]{}
\providecommand\HyField@AuxAddToCoFields[2]{}
\providecommand\@newglossary[4]{}
\@newglossary{main}{glg}{gls}{glo}
\@newglossary{acronym}{alg}{acr}{acn}
\providecommand\@glsorder[1]{}
\providecommand\@istfilename[1]{}
\@istfilename{campos_electromagneticos_neuronales.ist}
\@glsorder{word}
\select@language{spanish}
\@writefile{toc}{\select@language{spanish}}
\@writefile{lof}{\select@language{spanish}}
\@writefile{lot}{\select@language{spanish}}
\citation{Azevedo2009}
\citation{Hamalainen1993}
\@writefile{toc}{\contentsline {section}{\numberline {1}Introducci\IeC {\'o}n te\IeC {\'o}rica / contextualizaci\IeC {\'o}n}{3}{section.1}}
\@writefile{brf}{\backcite{Azevedo2009}{{3}{1}{section.1}}}
\@writefile{lof}{\contentsline {figure}{\numberline {1}{\ignorespaces Tipos de sinapsis. Figura extra\IeC {\'\i }da de \cite  {Hamalainen1993}.}}{3}{figure.1}}
\@writefile{brf}{\backcite{Hamalainen1993}{{3}{1}{figure.1}}}
\newlabel{fig:neuron_synapsis}{{1}{3}{Tipos de sinapsis. Figura extraída de \cite {Hamalainen1993}}{figure.1}{}}
\citation{Hamalainen1993}
\citation{Hamalainen1993}
\citation{Baillet2017}
\citation{Baillet2017}
\citation{Baillet2017}
\citation{Baillet2017}
\@writefile{toc}{\contentsline {section}{\numberline {2}Material y m\IeC {\'e}todos}{4}{section.2}}
\@writefile{toc}{\contentsline {subsection}{\numberline {2.1}\acrshort {eeg}}{4}{subsection.2.1}}
\@writefile{toc}{\contentsline {subsubsection}{\numberline {2.1.1}Fundamentos f\IeC {\'\i }sicos}{4}{subsubsection.2.1.1}}
\newlabel{subsec:eeg_fundamentos_fisicos}{{2.1.1}{4}{Fundamentos físicos}{subsubsection.2.1.1}{}}
\@writefile{brf}{\backcite{Hamalainen1993}{{4}{2.1.1}{subsubsection.2.1.1}}}
\@writefile{brf}{\backcite{Hamalainen1993}{{4}{2.1.1}{subsubsection.2.1.1}}}
\citation{Berger1929}
\@writefile{lof}{\contentsline {figure}{\numberline {2}{\ignorespaces Corriente el\IeC {\'e}ctrica y sus potenciales en una neurona, as\IeC {\'\i } como su campo magn\IeC {\'e}tico inducido. Figura extra\IeC {\'\i }da de \cite  {Baillet2017}.}}{5}{figure.2}}
\@writefile{brf}{\backcite{Baillet2017}{{5}{2}{figure.2}}}
\newlabel{fig:neuron_electric_and_magnetic}{{2}{5}{Corriente eléctrica y sus potenciales en una neurona, así como su campo magnético inducido. Figura extraída de \cite {Baillet2017}}{figure.2}{}}
\@writefile{lof}{\contentsline {figure}{\numberline {3}{\ignorespaces Corriente el\IeC {\'e}ctrica de m\IeC {\'u}ltiples neuronas. Se observa que el potencial postsin\IeC {\'a}ptico es m\IeC {\'a}s influyente, ya que dura hasta decenas de milisegundos y da tiempo suficiente a que se solapen y se sumen las se\IeC {\~n}ales de otras neuronas. Figura extra\IeC {\'\i }da de \cite  {Baillet2017}.}}{5}{figure.3}}
\@writefile{brf}{\backcite{Baillet2017}{{5}{3}{figure.3}}}
\newlabel{fig:neurons_electric_currents}{{3}{5}{Corriente eléctrica de múltiples neuronas. Se observa que el potencial postsináptico es más influyente, ya que dura hasta decenas de milisegundos y da tiempo suficiente a que se solapen y se sumen las señales de otras neuronas. Figura extraída de \cite {Baillet2017}}{figure.3}{}}
\newlabel{equ:potential_lenght}{{1}{5}{Fundamentos físicos}{equation.2.1}{}}
\citation{Hamalainen1993}
\citation{Hamalainen1993}
\citation{Hansen2010}
\citation{Hansen2010}
\@writefile{toc}{\contentsline {subsubsection}{\numberline {2.1.2}Detecci\IeC {\'o}n}{6}{subsubsection.2.1.2}}
\@writefile{brf}{\backcite{Berger1929}{{6}{2.1.2}{subsubsection.2.1.2}}}
\@writefile{lof}{\contentsline {figure}{\numberline {4}{\ignorespaces Esquema en el que se ven algunas de las zonas m\IeC {\'a}s importantes del cerebro humano. Figura extra\IeC {\'\i }da de \cite  {Hamalainen1993}.}}{6}{figure.4}}
\@writefile{brf}{\backcite{Hamalainen1993}{{6}{4}{figure.4}}}
\newlabel{fig:human_brain_parts}{{4}{6}{Esquema en el que se ven algunas de las zonas más importantes del cerebro humano. Figura extraída de \cite {Hamalainen1993}}{figure.4}{}}
\@writefile{lof}{\contentsline {figure}{\numberline {5}{\ignorespaces Organizaci\IeC {\'o}n espacial de las neuronas. Destaca la imagen C, donde se aprecia como las neuronas piramidales del c\IeC {\'o}rtex se alinean de manera paralela, una disposici\IeC {\'o}n que implica que se puedan sumar sus corrientes y su campo magn\IeC {\'e}tico. Figura extra\IeC {\'\i }da de \cite  {Hansen2010}.}}{6}{figure.5}}
\@writefile{brf}{\backcite{Hansen2010}{{6}{5}{figure.5}}}
\newlabel{fig:position_neurons_fields}{{5}{6}{Organización espacial de las neuronas. Destaca la imagen C, donde se aprecia como las neuronas piramidales del córtex se alinean de manera paralela, una disposición que implica que se puedan sumar sus corrientes y su campo magnético. Figura extraída de \cite {Hansen2010}}{figure.5}{}}
\citation{Cognionics}
\citation{Cognionics}
\citation{Kahkonen2005}
\citation{Kahkonen2005}
\citation{Teplan2002}
\citation{Teplan2002}
\@writefile{lof}{\contentsline {figure}{\numberline {6}{\ignorespaces Dispositivo \acrshort {eeg} de 128 canales por parte de la compa\IeC {\~n}\IeC {\'\i }a Cognionics. Modelo Mobile-128. Figura extra\IeC {\'\i }da de \cite  {Cognionics}.}}{7}{figure.6}}
\@writefile{brf}{\backcite{Cognionics}{{7}{6}{figure.6}}}
\newlabel{fig:eeg_cap}{{6}{7}{Dispositivo \acrshort {eeg} de 128 canales por parte de la compañía Cognionics. Modelo Mobile-128. Figura extraída de \cite {Cognionics}}{figure.6}{}}
\citation{Hansen2010}
\citation{Hansen2010}
\citation{Cohen1972}
\citation{Ahlfors2010}
\@writefile{lof}{\contentsline {figure}{\numberline {7}{\ignorespaces Detecci\IeC {\'o}n de \acrshort {eeg} de 60 canales. Fue aplicado \acrshort {tms} al lado izquierdo, en el cual se ve un incremento de la actividad. Figura extra\IeC {\'\i }da de \cite  {Kahkonen2005}.}}{8}{figure.7}}
\@writefile{brf}{\backcite{Kahkonen2005}{{8}{7}{figure.7}}}
\newlabel{fig:EEG_signals_example}{{7}{8}{Detección de \acrshort {eeg} de 60 canales. Fue aplicado \acrshort {tms} al lado izquierdo, en el cual se ve un incremento de la actividad. Figura extraída de \cite {Kahkonen2005}}{figure.7}{}}
\@writefile{lof}{\contentsline {figure}{\numberline {8}{\ignorespaces Se\IeC {\~n}al \acrshort {eeg} en el que se ven diferentes tipos de onda. Figura extra\IeC {\'\i }da de \cite  {Teplan2002}.}}{8}{figure.8}}
\@writefile{brf}{\backcite{Teplan2002}{{8}{8}{figure.8}}}
\newlabel{fig:eeg_waves_type}{{8}{8}{Señal \acrshort {eeg} en el que se ven diferentes tipos de onda. Figura extraída de \cite {Teplan2002}}{figure.8}{}}
\@writefile{toc}{\contentsline {subsection}{\numberline {2.2}\acrshort {meg}}{8}{subsection.2.2}}
\@writefile{toc}{\contentsline {subsubsection}{\numberline {2.2.1}Fundamentos f\IeC {\'\i }sicos}{8}{subsubsection.2.2.1}}
\@writefile{brf}{\backcite{Hansen2010}{{8}{2.2.1}{subsubsection.2.2.1}}}
\@writefile{brf}{\backcite{Hansen2010}{{8}{2.2.1}{subsubsection.2.2.1}}}
\newlabel{equ:magnetic_field_meg}{{2}{8}{Fundamentos físicos}{equation.2.2}{}}
\citation{Zimmerman1970}
\citation{Hari2012}
\citation{Hamalainen1993}
\citation{Hamalainen1993}
\citation{Hamalainen1993}
\citation{Hamalainen1993}
\@writefile{toc}{\contentsline {subsubsection}{\numberline {2.2.2}Detecci\IeC {\'o}n}{9}{subsubsection.2.2.2}}
\@writefile{brf}{\backcite{Cohen1972}{{9}{2.2.2}{subsubsection.2.2.2}}}
\@writefile{brf}{\backcite{Ahlfors2010}{{9}{2.2.2}{subsubsection.2.2.2}}}
\@writefile{brf}{\backcite{Zimmerman1970}{{9}{2.2.2}{subsubsection.2.2.2}}}
\@writefile{brf}{\backcite{Hari2012}{{9}{2.2.2}{subsubsection.2.2.2}}}
\citation{ElektaNeuromag2018}
\citation{ElektaNeuromag2018}
\citation{Vrba2001}
\citation{Vrba2001}
\@writefile{lof}{\contentsline {figure}{\numberline {9}{\ignorespaces Comparativa de los valores de los campos magn\IeC {\'e}ticos. Figura extra\IeC {\'\i }da de \cite  {Hamalainen1993}.}}{10}{figure.9}}
\@writefile{brf}{\backcite{Hamalainen1993}{{10}{9}{figure.9}}}
\newlabel{fig:meg_signals_compared}{{9}{10}{Comparativa de los valores de los campos magnéticos. Figura extraída de \cite {Hamalainen1993}}{figure.9}{}}
\@writefile{lof}{\contentsline {figure}{\numberline {10}{\ignorespaces Esquema del interior de un dispositivo para medir \acrshort {meg}. Figura extra\IeC {\'\i }da de \cite  {Hamalainen1993}.}}{10}{figure.10}}
\@writefile{brf}{\backcite{Hamalainen1993}{{10}{10}{figure.10}}}
\newlabel{fig:MEG_device_scheme}{{10}{10}{Esquema del interior de un dispositivo para medir \acrshort {meg}. Figura extraída de \cite {Hamalainen1993}}{figure.10}{}}
\@writefile{lof}{\contentsline {figure}{\numberline {11}{\ignorespaces Dispositivo actual de \acrshort {meg} por parte de la compa\IeC {\~n}\IeC {\'\i }a Elekta Neuromag. Figura extra\IeC {\'\i }da de \cite  {ElektaNeuromag2018}.}}{10}{figure.11}}
\@writefile{brf}{\backcite{ElektaNeuromag2018}{{10}{11}{figure.11}}}
\newlabel{fig:meg_device_neuromag}{{11}{10}{Dispositivo actual de \acrshort {meg} por parte de la compañía Elekta Neuromag. Figura extraída de \cite {ElektaNeuromag2018}}{figure.11}{}}
\citation{Hansen2010}
\citation{Hansen2010}
\citation{Hansen2010}
\@writefile{lof}{\contentsline {figure}{\numberline {12}{\ignorespaces Recepci\IeC {\'o}n de campos electromagn\IeC {\'e}ticos afectada por los pliegues del c\IeC {\'o}rtex. Figura extra\IeC {\'\i }da de \cite  {Vrba2001}.}}{11}{figure.12}}
\@writefile{brf}{\backcite{Vrba2001}{{11}{12}{figure.12}}}
\newlabel{fig:meg_signal_cortex}{{12}{11}{Recepción de campos electromagnéticos afectada por los pliegues del córtex. Figura extraída de \cite {Vrba2001}}{figure.12}{}}
\@writefile{lof}{\contentsline {figure}{\numberline {13}{\ignorespaces Campos electromagn\IeC {\'e}ticos afectados por los pliegues del c\IeC {\'o}rtex. Esquema m\IeC {\'a}s detallado de la figura \ref  {fig:cortex_fields}. Figura extra\IeC {\'\i }da de \cite  {Hansen2010}.}}{11}{figure.13}}
\@writefile{brf}{\backcite{Hansen2010}{{11}{13}{figure.13}}}
\newlabel{fig:cortex_fields}{{13}{11}{Campos electromagnéticos afectados por los pliegues del córtex. Esquema más detallado de la figura \ref {fig:cortex_fields}. Figura extraída de \cite {Hansen2010}}{figure.13}{}}
\citation{Sandman1984}
\citation{Damadian1971}
\citation{Schild1990}
\citation{Schild1990}
\citation{Blink2004}
\citation{Blink2004}
\@writefile{lof}{\contentsline {figure}{\numberline {14}{\ignorespaces Ejemplo de una se\IeC {\~n}al \acrshort {meg}. Figura extra\IeC {\'\i }da de \cite  {Hansen2010}.}}{12}{figure.14}}
\@writefile{brf}{\backcite{Hansen2010}{{12}{14}{figure.14}}}
\newlabel{fig:meg_signal_example}{{14}{12}{Ejemplo de una señal \acrshort {meg}. Figura extraída de \cite {Hansen2010}}{figure.14}{}}
\@writefile{toc}{\contentsline {subsection}{\numberline {2.3}\acrshort {fmri}}{12}{subsection.2.3}}
\newlabel{sec:fmri}{{2.3}{12}{\acrshort {fmri}}{subsection.2.3}{}}
\@writefile{toc}{\contentsline {subsubsection}{\numberline {2.3.1}Fundamentos f\IeC {\'\i }sicos y detecci\IeC {\'o}n}{12}{subsubsection.2.3.1}}
\@writefile{brf}{\backcite{Sandman1984}{{12}{2.3.1}{subsubsection.2.3.1}}}
\@writefile{brf}{\backcite{Damadian1971}{{12}{2.3.1}{subsubsection.2.3.1}}}
\citation{Schild1990}
\citation{Schild1990}
\citation{Blink2004}
\citation{Blink2004}
\citation{Blink2004}
\citation{Blink2004}
\@writefile{lof}{\contentsline {figure}{\numberline {15}{\ignorespaces Esquema del interior de un dispositivo de \acrshort {mri}. Figura extra\IeC {\'\i }da de \citep  {Schild1990}.}}{13}{figure.15}}
\@writefile{brf}{\backcite{Schild1990}{{13}{15}{figure.15}}}
\newlabel{fig:mri_device1}{{15}{13}{Esquema del interior de un dispositivo de \acrshort {mri}. Figura extraída de \citep {Schild1990}}{figure.15}{}}
\@writefile{lof}{\contentsline {figure}{\numberline {16}{\ignorespaces Dispositivo \acrshort {mri}. Figura extra\IeC {\'\i }da de \cite  {Blink2004}.}}{13}{figure.16}}
\@writefile{brf}{\backcite{Blink2004}{{13}{16}{figure.16}}}
\newlabel{fig:mri_device2}{{16}{13}{Dispositivo \acrshort {mri}. Figura extraída de \cite {Blink2004}}{figure.16}{}}
\@writefile{lof}{\contentsline {figure}{\numberline {17}{\ignorespaces Prot\IeC {\'o}n girando por su carga positiva. Figura extra\IeC {\'\i }da de \citep  {Schild1990}.}}{13}{figure.17}}
\@writefile{brf}{\backcite{Schild1990}{{13}{17}{figure.17}}}
\newlabel{fig:proton_spinning}{{17}{13}{Protón girando por su carga positiva. Figura extraída de \citep {Schild1990}}{figure.17}{}}
\@writefile{lof}{\contentsline {figure}{\numberline {18}{\ignorespaces Protones orient\IeC {\'a}ndose por la influencia de un campo magn\IeC {\'e}tico. Figura extra\IeC {\'\i }da de \cite  {Blink2004}.}}{13}{figure.18}}
\@writefile{brf}{\backcite{Blink2004}{{13}{18}{figure.18}}}
\newlabel{fig:protons_orient_magnetic}{{18}{13}{Protones orientándose por la influencia de un campo magnético. Figura extraída de \cite {Blink2004}}{figure.18}{}}
\citation{Dogil2002}
\citation{Dogil2002}
\@writefile{lof}{\contentsline {figure}{\numberline {19}{\ignorespaces Excitaci\IeC {\'o}n de los protones mediante pulsos de radiofrecuencia y su consecuente relajaci\IeC {\'o}n y emisi\IeC {\'o}n de radiofrecuencia, que recibe el esc\IeC {\'a}ner \acrshort {mri}. Figura extra\IeC {\'\i }da de \cite  {Blink2004}.}}{14}{figure.19}}
\@writefile{brf}{\backcite{Blink2004}{{14}{19}{figure.19}}}
\newlabel{fig:mri_rf}{{19}{14}{Excitación de los protones mediante pulsos de radiofrecuencia y su consecuente relajación y emisión de radiofrecuencia, que recibe el escáner \acrshort {mri}. Figura extraída de \cite {Blink2004}}{figure.19}{}}
\citation{Blink2004}
\citation{Blink2004}
\citation{Mao2002}
\citation{Mao2002}
\citation{Benson1996}
\@writefile{lof}{\contentsline {figure}{\numberline {20}{\ignorespaces Efecto \acrshort {bold}. Aumento de flujo sangu\IeC {\'\i }neo y oxigenaci\IeC {\'o}n en la activaci\IeC {\'o}n neuronal. Figura extra\IeC {\'\i }da de \cite  {Dogil2002}.}}{15}{figure.20}}
\@writefile{brf}{\backcite{Dogil2002}{{15}{20}{figure.20}}}
\newlabel{fig:bold_effect_blood}{{20}{15}{Efecto \acrshort {bold}. Aumento de flujo sanguíneo y oxigenación en la activación neuronal. Figura extraída de \cite {Dogil2002}}{figure.20}{}}
\@writefile{lof}{\contentsline {figure}{\numberline {21}{\ignorespaces Ejemplo de imagen tomada por \acrshort {mri}. Figura extra\IeC {\'\i }da de \cite  {Blink2004}.}}{15}{figure.21}}
\@writefile{brf}{\backcite{Blink2004}{{15}{21}{figure.21}}}
\newlabel{fig:mri_example_image}{{21}{15}{Ejemplo de imagen tomada por \acrshort {mri}. Figura extraída de \cite {Blink2004}}{figure.21}{}}
\@writefile{lof}{\contentsline {figure}{\numberline {22}{\ignorespaces Ejemplo de imagen tomada por \acrshort {fmri}. Se aprecia tambi\IeC {\'e}n la intensidad de la se\IeC {\~n}al \acrshort {bold}. Figura extra\IeC {\'\i }da de \cite  {Mao2002}.}}{15}{figure.22}}
\@writefile{brf}{\backcite{Mao2002}{{15}{22}{figure.22}}}
\newlabel{fig:fmri_image_bold}{{22}{15}{Ejemplo de imagen tomada por \acrshort {fmri}. Se aprecia también la intensidad de la señal \acrshort {bold}. Figura extraída de \cite {Mao2002}}{figure.22}{}}
\citation{Singh2012}
\citation{Singh2012}
\citation{Malmivuo2012}
\citation{Malmivuo2012}
\@writefile{brf}{\backcite{Benson1996}{{16}{2.3.1}{figure.22}}}
\@writefile{lof}{\contentsline {figure}{\numberline {23}{\ignorespaces Relaciones causales no conocidas con exactitud para las sa\IeC {\~n}eles \acrshort {bold} en \acrshort {fmri}. Figura extra\IeC {\'\i }da de \cite  {Singh2012}.}}{16}{figure.23}}
\@writefile{brf}{\backcite{Singh2012}{{16}{23}{figure.23}}}
\newlabel{fig:neuronal_techniques_factors}{{23}{16}{Relaciones causales no conocidas con exactitud para las sañeles \acrshort {bold} en \acrshort {fmri}. Figura extraída de \cite {Singh2012}}{figure.23}{}}
\citation{Barker1985}
\citation{Neurosoft2018}
\citation{Neurosoft2018}
\citation{Hallett2000}
\citation{Hallett2000}
\@writefile{lof}{\contentsline {figure}{\numberline {24}{\ignorespaces Relaciones de independencia entre el \acrshort {eeg}, \acrshort {meg} y \acrshort {fmri}. Figura extra\IeC {\'\i }da de \cite  {Malmivuo2012}.}}{17}{figure.24}}
\@writefile{brf}{\backcite{Malmivuo2012}{{17}{24}{figure.24}}}
\newlabel{fig:EEG_and_fMRI_independence}{{24}{17}{Relaciones de independencia entre el \acrshort {eeg}, \acrshort {meg} y \acrshort {fmri}. Figura extraída de \cite {Malmivuo2012}}{figure.24}{}}
\@writefile{toc}{\contentsline {subsection}{\numberline {2.4}\acrshort {tms}}{17}{subsection.2.4}}
\@writefile{toc}{\contentsline {subsubsection}{\numberline {2.4.1}Fundamentos f\IeC {\'\i }sicos}{17}{subsubsection.2.4.1}}
\@writefile{brf}{\backcite{Barker1985}{{17}{2.4.1}{subsubsection.2.4.1}}}
\citation{Ruohonen2010}
\citation{Ruohonen2010}
\citation{Murphy2016}
\@writefile{lof}{\contentsline {figure}{\numberline {25}{\ignorespaces Dispositivo \acrshort {tms} por parte de la compa\IeC {\~n}\IeC {\'\i }a Neurosoft, modelo Neuro-MS/D Therapeutic. Figura extra\IeC {\'\i }da de \cite  {Neurosoft2018}.}}{18}{figure.25}}
\@writefile{brf}{\backcite{Neurosoft2018}{{18}{25}{figure.25}}}
\newlabel{fig:tms_device_human}{{25}{18}{Dispositivo \acrshort {tms} por parte de la compañía Neurosoft, modelo Neuro-MS/D Therapeutic. Figura extraída de \cite {Neurosoft2018}}{figure.25}{}}
\@writefile{lof}{\contentsline {figure}{\numberline {26}{\ignorespaces Campo magn\IeC {\'e}tico inducido por la corriente producida en el dispositivo del \acrshort {tms}. Figura extra\IeC {\'\i }da de \cite  {Hallett2000}.}}{18}{figure.26}}
\@writefile{brf}{\backcite{Hallett2000}{{18}{26}{figure.26}}}
\newlabel{fig:tms_induction}{{26}{18}{Campo magnético inducido por la corriente producida en el dispositivo del \acrshort {tms}. Figura extraída de \cite {Hallett2000}}{figure.26}{}}
\@writefile{lof}{\contentsline {figure}{\numberline {27}{\ignorespaces Esquema del campo magn\IeC {\'e}tico de la \acrshort {tms} induciendo corriente el\IeC {\'e}ctrica en el c\IeC {\'o}rtex. Figura extra\IeC {\'\i }da de \cite  {Ruohonen2010}.}}{18}{figure.27}}
\@writefile{brf}{\backcite{Ruohonen2010}{{18}{27}{figure.27}}}
\newlabel{fig:tms_scheme}{{27}{18}{Esquema del campo magnético de la \acrshort {tms} induciendo corriente eléctrica en el córtex. Figura extraída de \cite {Ruohonen2010}}{figure.27}{}}
\@writefile{brf}{\backcite{Murphy2016}{{18}{2.4.1}{figure.27}}}
\citation{MorenoDuarte2014}
\citation{Lefaucheur2014a}
\citation{Aziz-Zadeh2002}
\citation{Aziz-Zadeh2002}
\citation{Lefaucheur2014a}
\@writefile{brf}{\backcite{MorenoDuarte2014}{{19}{2.4.1}{figure.27}}}
\@writefile{brf}{\backcite{Lefaucheur2014a}{{19}{2.4.1}{figure.27}}}
\@writefile{toc}{\contentsline {subsubsection}{\numberline {2.4.2}Usos cl\IeC {\'\i }nicos}{19}{subsubsection.2.4.2}}
\@writefile{lof}{\contentsline {figure}{\numberline {28}{\ignorespaces Est\IeC {\'\i }mulo por \acrshort {tms} en el c\IeC {\'o}rtex motor, que produce movimiento en el dedo \IeC {\'\i }ndice. Figura extra\IeC {\'\i }da de \cite  {Aziz-Zadeh2002}.}}{19}{figure.28}}
\@writefile{brf}{\backcite{Aziz-Zadeh2002}{{19}{28}{figure.28}}}
\newlabel{fig:tms_stimuli_finger}{{28}{19}{Estímulo por \acrshort {tms} en el córtex motor, que produce movimiento en el dedo índice. Figura extraída de \cite {Aziz-Zadeh2002}}{figure.28}{}}
\citation{Bielza2014}
\@writefile{brf}{\backcite{Lefaucheur2014a}{{20}{2.4.2}{figure.28}}}
\@writefile{toc}{\contentsline {section}{\numberline {3}Planteamiento del problema}{20}{section.3}}
\@writefile{toc}{\contentsline {subsection}{\numberline {3.1}Machine learning}{20}{subsection.3.1}}
\@writefile{brf}{\backcite{Bielza2014}{{20}{3.1}{subsection.3.1}}}
\citation{NextLimit2018}
\citation{NextLimit2018}
\citation{Michiels2018}
\citation{Scorcioni2008}
\citation{Scorcioni2008}
\@writefile{brf}{\backcite{NextLimit2018}{{21}{3.1}{subsection.3.1}}}
\@writefile{lof}{\contentsline {figure}{\numberline {29}{\ignorespaces Ejemplo de red creada con BeGraph \citep  {NextLimit2018}.}}{21}{figure.29}}
\@writefile{brf}{\backcite{NextLimit2018}{{21}{29}{figure.29}}}
\newlabel{fig:begraph}{{29}{21}{Ejemplo de red creada con BeGraph \citep {NextLimit2018}}{figure.29}{}}
\@writefile{toc}{\contentsline {section}{\numberline {4}Resultados / aplicaciones}{21}{section.4}}
\@writefile{toc}{\contentsline {subsection}{\numberline {4.1}NeuroSuite}{21}{subsection.4.1}}
\@writefile{brf}{\backcite{Michiels2018}{{21}{4.1}{subsection.4.1}}}
\citation{Luengo}
\citation{Luengo}
\citation{GherardoVarando}
\@writefile{lof}{\contentsline {figure}{\numberline {30}{\ignorespaces Software L-Measure \citep  {Scorcioni2008} midiendo variables morfol\IeC {\'o}gicas de neuronas de manera online desde la plataforma NeuroSuite.}}{22}{figure.30}}
\@writefile{brf}{\backcite{Scorcioni2008}{{22}{30}{figure.30}}}
\newlabel{fig:neurosuite_l_measure}{{30}{22}{Software L-Measure \citep {Scorcioni2008} midiendo variables morfológicas de neuronas de manera online desde la plataforma NeuroSuite}{figure.30}{}}
\@writefile{lof}{\contentsline {figure}{\numberline {31}{\ignorespaces Software 3DSpineS \citep  {Luengo} creando espinas virtuales de dendritas, ejecut\IeC {\'a}ndose desde la plataforma NeuroSuite.}}{22}{figure.31}}
\@writefile{brf}{\backcite{Luengo}{{22}{31}{figure.31}}}
\newlabel{fig:neurosuite_3dspine}{{31}{22}{Software 3DSpineS \citep {Luengo} creando espinas virtuales de dendritas, ejecutándose desde la plataforma NeuroSuite}{figure.31}{}}
\@writefile{toc}{\contentsline {subsubsection}{\numberline {4.1.1}MultiMap}{23}{subsubsection.4.1.1}}
\@writefile{brf}{\backcite{GherardoVarando}{{23}{4.1.1}{subsubsection.4.1.1}}}
\@writefile{lof}{\contentsline {figure}{\numberline {32}{\ignorespaces Imagen de una \acrshort {fmri} vista en la aplicaci\IeC {\'o}n online de MultiMap ejecut\IeC {\'a}ndose en la plataforma NeuroSuite.}}{23}{figure.32}}
\newlabel{fig:neurosuite_fmri}{{32}{23}{Imagen de una \acrshort {fmri} vista en la aplicación online de MultiMap ejecutándose en la plataforma NeuroSuite}{figure.32}{}}
\@writefile{toc}{\contentsline {section}{\numberline {5}Discusi\IeC {\'o}n}{24}{section.5}}
\@writefile{toc}{\contentsline {section}{\numberline {6}Agradecimientos}{24}{section.6}}
\bibdata{references}
\bibcite{Ahlfors2010}{{1}{2010}{{Ahlfors et~al.}}{{Ahlfors, Han, Belliveau, and H{\"{a}}m{\"{a}}l{\"{a}}inen}}}
\bibcite{Azevedo2009}{{2}{2009}{{Azevedo et~al.}}{{Azevedo, Carvalho, Grinberg, Farfel, Ferretti, Leite, Filho, Lent, and Herculano-Houzel}}}
\bibcite{Aziz-Zadeh2002}{{3}{2002}{{Aziz-Zadeh et~al.}}{{Aziz-Zadeh, Maeda, Zaidel, Mazziotta, and Iacoboni}}}
\@writefile{toc}{\contentsline {section}{Siglas}{25}{section*.2}}
\@writefile{toc}{\contentsline {section}{Referencias}{25}{section*.4}}
\bibcite{Baillet2017}{{4}{2017}{{Baillet}}{{}}}
\bibcite{Barker1985}{{5}{1985}{{Barker and Jalinous}}{{}}}
\bibcite{Benson1996}{{6}{1996}{{Benson et~al.}}{{Benson, Logan, Cosgrove, Cole, Jiang, LeSueur, Buchbinder, Rosen, and Caviness}}}
\bibcite{Berger1929}{{7}{1929}{{Berger}}{{}}}
\bibcite{Bielza2014}{{8}{2014}{{Bielza and Larra{\~{n}}aga}}{{}}}
\bibcite{Blink2004}{{9}{2004}{{Blink}}{{}}}
\bibcite{Cognionics}{{10}{2018}{{Cognionics}}{{}}}
\bibcite{Cohen1972}{{11}{1972}{{Cohen}}{{}}}
\bibcite{Damadian1971}{{12}{1971}{{Damadian}}{{}}}
\bibcite{Dogil2002}{{13}{2002}{{Dogil et~al.}}{{Dogil, Ackermann, Grodd, Haider, Kamp, Mayer, Riecker, and Wildgruber}}}
\bibcite{ElektaNeuromag2018}{{14}{2018}{{Elekta Neuromag}}{{}}}
\bibcite{Hallett2000}{{15}{2000}{{Hallett}}{{}}}
\bibcite{Hamalainen1993}{{16}{1993}{{H{\"{a}}m{\"{a}}l{\"{a}}inen et~al.}}{{H{\"{a}}m{\"{a}}l{\"{a}}inen, Hari, Ilmoniemi, Knuutila, and Lounasmaa}}}
\bibcite{Hansen2010}{{17}{2010}{{Hansen et~al.}}{{Hansen, Kringelbach, and Salmelin}}}
\bibcite{Hari2012}{{18}{2012}{{Hari and Salmelin}}{{}}}
\bibcite{Kahkonen2005}{{19}{2006}{{K{\"{a}}hk{\"{o}}nen}}{{}}}
\bibcite{Lefaucheur2014a}{{20}{2014}{{Lefaucheur et~al.}}{{Lefaucheur, Andr{\'{e}}-Obadia, Antal, Ayache, Baeken, Benninger, Cantello, Cincotta, de~Carvalho, {De Ridder}, Devanne, {Di Lazzaro}, Filipovi{\'{c}}, Hummel, J{\"{a}}{\"{a}}skel{\"{a}}inen, Kimiskidis, Koch, Langguth, Nyffeler, Oliviero, Padberg, Poulet, Rossi, Rossini, Rothwell, Sch{\"{o}}nfeldt-Lecuona, Siebner, Slotema, Stagg, Valls-Sole, Ziemann, Paulus, and Garcia-Larrea}}}
\bibcite{Luengo}{{21}{2018}{{Luengo}}{{}}}
\bibcite{Malmivuo2012}{{22}{2012}{{Malmivuo}}{{}}}
\bibcite{Mao2002}{{23}{2002}{{Mao and Berns}}{{}}}
\bibcite{Michiels2018}{{24}{2018}{{Michiels}}{{}}}
\bibcite{MorenoDuarte2014}{{25}{2014}{{Moreno-Duarte et~al.}}{{Moreno-Duarte, Gebodh, Schestatsky, Guleyupoglu, Reato, Bikson, and Fregni}}}
\bibcite{Murphy2016}{{26}{2016}{{Murphy et~al.}}{{Murphy, Palmer, Nyffeler, M{\"{u}}ri, and Larkum}}}
\bibcite{Neurosoft2018}{{27}{2018}{{Neurosoft}}{{}}}
\bibcite{NextLimit2018}{{28}{2018}{{Next Limit}}{{}}}
\bibcite{Ruohonen2010}{{29}{2010}{{Ruohonen and Karhu}}{{}}}
\bibcite{Sandman1984}{{30}{1984}{{Sandman et~al.}}{{Sandman, O'Halloran, Isenhart, Buchbinder, Weisskoff, Cohen, Vevea, Brady, and Rosen}}}
\bibcite{Schild1990}{{31}{1990}{{Schild}}{{}}}
\bibcite{Scorcioni2008}{{32}{2008}{{Scorcioni et~al.}}{{Scorcioni, Polavaram, and Ascoli}}}
\bibcite{Singh2012}{{33}{2012}{{Singh}}{{}}}
\bibcite{Teplan2002}{{34}{2002}{{Teplan}}{{}}}
\bibcite{GherardoVarando}{{35}{2017}{{Varando}}{{}}}
\bibcite{Vrba2001}{{36}{2001}{{Vrba and Robinson}}{{}}}
\bibcite{Zimmerman1970}{{37}{1970}{{Zimmerman et~al.}}{{Zimmerman, Thiene, and Harding}}}
